{
  "apps": [
    {
      "name": "ims-nodejs",
      "script": "src/index.js",
      "instances": 1,
      "autorestart": true,
      "watch": false,
      "time": true,
      "env": {
        "NODE_ENV": "production"
      }
    }
  ]
}
